{
  "project_info": {
    "project_number": "106657577562",
    "firebase_url": "https://engradiup-36e31.firebaseio.com",
    "project_id": "engradiup-36e31",
    "storage_bucket": "engradiup-36e31.appspot.com"
  },
  "client": [
    {
      "client_info": {
        "mobilesdk_app_id": "1:106657577562:android:5d256c1d0e7420ce",
        "android_client_info": {
          "package_name": "com.example.minht.madabot"
        }
      },
      "oauth_client": [
        {
          "client_id": "106657577562-r3la7tt3144ficcli5271ltq1ldlrq84.apps.googleusercontent.com",
          "client_type": 1,
          "android_info": {
            "package_name": "com.example.minht.madabot",
            "certificate_hash": "89cc20934de3aaf24757e28587c46e60b3918af5"
          }
        },
        {
          "client_id": "106657577562-ktvshdilrfjasbotqs1qt0tm5i68c1l8.apps.googleusercontent.com",
          "client_type": 3
        },
        {
          "client_id": "106657577562-ktvshdilrfjasbotqs1qt0tm5i68c1l8.apps.googleusercontent.com",
          "client_type": 3
        }
      ],
      "api_key": [
        {
          "current_key": "AIzaSyCHntIxpdJtJAepLh0ezuKvg3wwNr5CIDU"
        }
      ],
      "services": {
        "analytics_service": {
          "status": 1
        },
        "appinvite_service": {
          "status": 2,
          "other_platform_oauth_client": [
            {
              "client_id": "106657577562-ktvshdilrfjasbotqs1qt0tm5i68c1l8.apps.googleusercontent.com",
              "client_type": 3
            }
          ]
        },
        "ads_service": {
          "status": 2
        }
      }
    }
  ],
  "configuration_version": "1"
}